Place,Name,Division,Equipment,Event,BirthDate,BirthYear,Sex,BodyweightKg,WeightClassKg,Squat1Kg,Squat2Kg,Squat3Kg,Best3SquatKg,Bench1Kg,Bench2Kg,Bench3Kg,Best3BenchKg,Deadlift1Kg,Deadlift2Kg,Deadlift3Kg,Best3DeadliftKg,TotalKg
1,Valentine Houssain,Juniors,Raw,SBD,,2000,F,50.9,52,110,117.5,120,120,57.5,62.5,-65,62.5,122.5,130,-135,130,312.5
2,Océane Arnon,Juniors,Raw,SBD,,2000,F,51.6,52,85,92.5,95,95,40,45,47.5,47.5,115,120,125,125,267.5
3,Perrine Garcia,Juniors,Raw,SBD,,2000,F,51.2,52,92.5,100,-102.5,100,50,-55,-55,50,97.5,-102.5,105,105,255
4,Eva Loevenbruck,Juniors,Raw,SBD,,2004,F,50.4,52,82.5,87.5,90,90,50,52.5,-55,52.5,95,102.5,-112.5,102.5,245
1,Justine Micheletti,Juniors,Raw,SBD,,2001,F,59.6,63,-132.5,-132.5,132.5,132.5,67.5,72.5,77.5,77.5,152.5,165,172.5,172.5,382.5
2,Charlotte Pipart,Juniors,Raw,SBD,,2003,F,60.3,63,97.5,102.5,105,105,57.5,60,-62.5,60,105,107.5,110,110,275
DQ,Carla Drouet,Juniors,Raw,SBD,,2003,F,61.3,63,-112.5,122.5,127.5,127.5,50,55,-57.5,55,-145,-155,-155,,
1,Emma Pascal,Juniors,Raw,SBD,,2002,F,68.7,69,122.5,127.5,-132.5,127.5,70,75,77.5,77.5,160,167.5,-175,167.5,372.5
2,Emma Rey,Juniors,Raw,SBD,,2003,F,67.2,69,-135,140,-145,140,70,75,-80,75,137.5,145,155,155,370
3,Yolenne Kinsonnier,Juniors,Raw,SBD,,2003,F,67.7,69,-132.5,132.5,-142.5,132.5,65,-70,-70,65,140,-152.5,-162.5,140,337.5
DQ,Cloe Labile,Juniors,Raw,SBD,,2003,F,69,69,-120,-122.5,-122.5,,72.5,75,-80,75,132.5,140,-145,140,
1,Clothilde Chevalier,Juniors,Raw,SBD,,2000,F,75.1,76,135,142.5,-145,142.5,65,-67.5,-67.5,65,145,157.5,-167.5,157.5,365
1,Angéla Cabral,Seniors,Raw,SBD,,1985,F,51.7,52,115,117.5,122.5,122.5,70,72.5,-75,72.5,155,157.5,-160,157.5,352.5
1,Mélanie Pagesy,Seniors,Raw,SBD,,1999,F,57,57,135,140,-145,140,77.5,82.5,-87.5,82.5,160,170,-175,170,392.5
2,Marion Raoult Satorres,Seniors,Raw,SBD,,1996,F,57,57,117.5,125,127.5,127.5,70,75,-77.5,75,147.5,152.5,-157.5,152.5,355
1,Jennifer Marina Guisset,Seniors,Raw,SBD,,1998,F,62.7,63,117.5,125,-130,125,57.5,62.5,-65,62.5,155,165,-172.5,165,352.5
2,Jennifer De Campos,Seniors,Raw,SBD,,1991,F,62.3,63,110,-115,-115,110,75,-77.5,77.5,77.5,155,-165,-172.5,155,342.5
3,Andréa Lannuzel,Seniors,Raw,SBD,,1996,F,62.2,63,110,117.5,122.5,122.5,65,70,-72.5,70,145,-152.5,-152.5,145,337.5
1,Oriane Didia,Seniors,Raw,SBD,,1994,F,64.6,69,97.5,105,-110,105,50,-52.5,52.5,52.5,-120,127.5,135,135,292.5
2,Maeva Lecomte,Seniors,Raw,SBD,,1994,F,68.1,69,97.5,102.5,-107.5,102.5,45,50,-52.5,50,112.5,117.5,-120,117.5,270
1,Audrey Balleroy,Seniors,Raw,SBD,,1999,F,75.1,76,115,120,125,125,62.5,-67.5,-67.5,62.5,155,165,187.5,187.5,375
1,Myriam Vignes Bissane,Masters 1,Raw,SBD,,1978,F,67.7,69,90,95,100,100,-35,35,40,40,100,110,117.5,117.5,257.5
1,Theo Duthu,Sub-Juniors,Raw,SBD,,2006,M,65.1,66,155,160,165,165,95,100,-105,100,-180,180,187.5,187.5,452.5
2,Mel Toualbia,Sub-Juniors,Raw,SBD,,2006,M,65.2,66,165,-175,-175,165,75,-82.5,-82.5,75,190,192.5,-215,192.5,432.5
1,Ethan Sensi,Sub-Juniors,Raw,SBD,,2005,M,69.9,74,-152.5,-160,165,165,122.5,-127.5,127.5,127.5,185,200,-220,200,492.5
2,Enzo Ramos,Sub-Juniors,Raw,SBD,,2005,M,72.3,74,135,145,155,155,95,102.5,-107.5,102.5,160,172.5,185,185,442.5
1,Tom Janouin,Juniors,Raw,SBD,,2000,M,50,53,107.5,112.5,120,120,67.5,75,-80,75,147.5,155,160,160,355
1,Paul Maxant,Juniors,Raw,SBD,,2002,M,65.9,66,140,147.5,152.5,152.5,82.5,87.5,-90,87.5,-180,187.5,195,195,435
2,Jude Senegas,Juniors,Raw,SBD,,2001,M,64.6,66,122.5,-130,132.5,132.5,80,87.5,92.5,92.5,157.5,-162.5,-162.5,157.5,382.5
3,Martin Perez,Juniors,Raw,SBD,,2000,M,65,66,110,117.5,-122.5,117.5,-75,75,-80,75,145,155,162.5,162.5,355
1,Germain Lespingal,Juniors,Raw,SBD,,2004,M,72.2,74,185,200,-207.5,200,107.5,112.5,-115,112.5,230,240,-257.5,240,552.5
2,Enzo Pires,Juniors,Raw,SBD,,2001,M,72.9,74,200,207.5,-212.5,207.5,117.5,-122.5,122.5,122.5,205,220,-227.5,220,550
3,Hugo Marty,Juniors,Raw,SBD,,2001,M,73.5,74,160,170,-175,170,115,120,-122.5,120,220,230,-240,230,520
4,Sebastien Couret,Juniors,Raw,SBD,,2000,M,72.9,74,160,170,-175,170,-110,110,115,115,180,190,200,200,485
5,Jules Falaschi,Juniors,Raw,SBD,,2004,M,73.1,74,150,160,167.5,167.5,87.5,-92.5,-92.5,87.5,160,172.5,182.5,182.5,437.5
6,Arthur Gueiffier,Juniors,Raw,SBD,,2004,M,72.3,74,150,152.5,-157.5,152.5,82.5,87.5,-90,87.5,155,162.5,-165,162.5,402.5
7,Florent Begue,Juniors,Raw,SBD,,2000,M,71,74,120,127.5,132.5,132.5,90,97.5,100,100,135,-147.5,147.5,147.5,380
8,Dylan Neyraud,Juniors,Raw,SBD,,2001,M,73,74,130,140,147.5,147.5,30,,,30,170,182.5,192.5,192.5,370
G,Luis Gaona,Sub-Juniors,Raw,SBD,,2006,M,64.6,66,130,137.5,142.5,142.5,77.5,82.5,-90,82.5,170,180,185,185,410
1,Charles Dessiaume,Juniors,Raw,SBD,,2000,M,78.8,83,175,185,190,190,122.5,130,135,135,210,225,242.5,242.5,567.5
2,Tom De Haro,Juniors,Raw,SBD,,2002,M,81.9,83,190,200,212.5,212.5,135,-140,-140,135,190,207.5,220,220,567.5
3,Mortada Mohan Saad,Juniors,Raw,SBD,,2002,M,82.1,83,170,-180,-187.5,170,140,147.5,152.5,152.5,200,210,220,220,542.5
4,Romain Domenichi,Juniors,Raw,SBD,,2001,M,78.9,83,150,160,170,170,100,105,110,110,-190,190,200,200,480
5,Enzo Bernex,Juniors,Raw,SBD,,2001,M,80,83,160,165,-170,165,120,-125,-125,120,-180,180,,180,465
6,Léo Boithias,Juniors,Raw,SBD,,2002,M,77.9,83,137.5,142.5,-145,142.5,-87.5,87.5,-95,87.5,175,190,200,200,430
1,Erwan Tabutin,Juniors,Raw,SBD,,2001,M,90.6,93,205,220,225,225,-117.5,125,135,135,215,-230,240,240,600
2,Hugo Moura,Juniors,Raw,SBD,,2003,M,86.5,93,180,190,200,200,120,127.5,132.5,132.5,235,250,-262.5,250,582.5
3,Fabien Rouger,Juniors,Raw,SBD,,2002,M,92,93,185,200,210,210,117.5,125,-127.5,125,225,240,247.5,247.5,582.5
4,Louis Colombani,Juniors,Raw,SBD,,2000,M,86.4,93,160,170,-175,170,110,-117.5,-120,110,220,230,240,240,520
5,Antoine Pillet,Juniors,Raw,SBD,,2004,M,84.1,93,177.5,185,192.5,192.5,92.5,97.5,-100,97.5,215,227.5,-240,227.5,517.5
G,Kody Sutherland,Juniors,Raw,SBD,,2000,M,90.8,93,160,170,177.5,177.5,115,122.5,130,130,190,205,215,215,522.5
1,Kevin Vanryckeghem,Seniors,Raw,SBD,,1996,M,56.8,59,-130,130,-135,130,75,80,-82.5,80,160,170,-185,170,380
DQ,Tony Formaggio,Seniors,Raw,SBD,,1985,M,65.6,66,125,130,140,140,-90,-90,-90,,155,165,175,175,
1,Cyril Diago,Seniors,Raw,SBD,,1992,M,72.3,74,220,232.5,250,250,135,140,-145,140,220,235,250,250,640
2,Lucas Ramenason,Seniors,Raw,SBD,,1999,M,73.4,74,185,200,207.5,207.5,150,160,,160,230,242.5,-250,242.5,610
3,Jérémy Melix,Seniors,Raw,SBD,,1999,M,73,74,-180,190,200,200,117.5,125,130,130,230,245,-255,245,575
4,Nicolas Yahiaoui,Seniors,Raw,SBD,,1999,M,73,74,185,200,-205,200,110,-115,-115,110,240,250,-267.5,250,560
5,Amaury Geay,Seniors,Raw,SBD,,1999,M,72.7,74,205,215,-220,215,112.5,-120,-120,112.5,210,-225,-225,210,537.5
6,Alexis Coueilles,Seniors,Raw,SBD,,1996,M,72.1,74,172.5,182.5,-190,182.5,102.5,110,115,115,202.5,217.5,-230,217.5,515
7,Louis Mathieu-Rivière,Seniors,Raw,SBD,,1999,M,72.4,74,177.5,185,-190,185,87.5,-92.5,-92.5,87.5,210,220,-227.5,220,492.5
DQ,Florian Albora,Seniors,Raw,SBD,,1999,M,72.5,74,-185,-195,195,195,-135,-135,-135,,230,245,-260,245,
8,Alexandre Duchauffour,Seniors,Raw,SBD,,1997,M,78.1,83,-180,187.5,195,195,115,120,-125,120,205,217.5,-225,217.5,532.5
G,Andrea Capponi,Seniors,Raw,SBD,,1992,M,67.7,74,125,-135,140,140,72.5,-80,-80,72.5,142.5,155,-162.5,155,367.5
1,Thomas Simonetta,Seniors,Raw,SBD,,1999,M,82.4,83,210,-220,225,225,135,142.5,150,150,245,-255,257.5,257.5,632.5
2,Axel Seyer,Seniors,Raw,SBD,,1995,M,81.6,83,190,200,207.5,207.5,132.5,142.5,-147.5,142.5,267.5,280,-300,280,630
3,Charles Savoie,Seniors,Raw,SBD,,1997,M,81,83,195,205,215,215,125,130,-135,130,255,270,275,275,620
4,Olivier Angoue Ondo,Seniors,Raw,SBD,,1996,M,80.5,83,160,167.5,170,170,120,125,130,130,250,260,-272.5,260,560
5,Lorenzo Sauvaire,Seniors,Raw,SBD,,1997,M,82.2,83,195,-202.5,202.5,202.5,125,-130,-130,125,-225,232.5,-240,232.5,560
6,Hayden Maghnini,Seniors,Raw,SBD,,1999,M,82.4,83,175,182.5,190,190,107.5,112.5,117.5,117.5,235,252.5,-260,252.5,560
7,Mathias Launay,Seniors,Raw,SBD,,1998,M,81.9,83,200,-210,-210,200,135,-137.5,,135,210,222.5,-230,222.5,557.5
9,Romaric Bernard,Seniors,Raw,SBD,,1996,M,79.4,83,-170,170,175,175,115,120,-125,120,205,212.5,220,220,515
10,Antoine Brandibas,Seniors,Raw,SBD,,1998,M,82.6,83,150,160,165,165,135,140,-145,140,185,-200,205,205,510
11,Tom Pennors,Seniors,Raw,SBD,,1999,M,76.6,83,142.5,150,-155,150,90,100,,100,180,190,-200,190,440
12,Antoine Wolfersberger,Seniors,Raw,SBD,,1995,M,75.8,83,130,137.5,140,140,92.5,97.5,100,100,150,165,172.5,172.5,412.5
13,Kevin Cosnard,Seniors,Raw,SBD,,1993,M,81.5,83,107.5,115,-122.5,115,107.5,112.5,117.5,117.5,127.5,137.5,150,150,382.5
1,Franck Rabaute,Masters 2,Raw,SBD,,1972,M,81.3,83,175,185,195,195,120,130,-135,130,210,225,235,235,560
1,Daniel Bacquie,Masters 3,Raw,SBD,,1959,M,81.7,83,87.5,-92.5,-95,87.5,57.5,62.5,-70,62.5,117.5,125,130,130,280
1,Luca Maurice,Seniors,Raw,SBD,,1998,M,90.6,93,230,242.5,255,255,130,137.5,-145,137.5,280,297.5,-310,297.5,690
2,Yoann Tzikunib,Seniors,Raw,SBD,,1994,M,90.8,93,220,235,-245,235,122.5,130,-135,130,252.5,267.5,275,275,640
3,Etienne Didelot,Seniors,Raw,SBD,,1995,M,86,93,210,220,-225,220,140,-145,-145,140,245,-255,-255,245,605
4,Marin Lespingal,Seniors,Raw,SBD,,1999,M,91.4,93,190,205,-212.5,205,150,-155,-155,150,240,-250,-252.5,240,595
5,Adrien Scott,Seniors,Raw,SBD,,1999,M,83.9,93,195,202.5,-205,202.5,130,137.5,142.5,142.5,225,235,-240,235,580
6,Maxime Cayrel,Seniors,Raw,SBD,,1996,M,90.1,93,180,190,200,200,120,125,132.5,132.5,175,190,200,200,532.5
7,Marc Meynier,Seniors,Raw,SBD,,1998,M,91.2,93,175,185,190,190,115,-120,-120,115,210,220,225,225,530
8,François Grezes,Seniors,Raw,SBD,,1997,M,88.8,93,142.5,155,165,165,102.5,110,-115,110,192.5,207.5,215,215,490
9,Dimitri Soulier,Seniors,Raw,SBD,,1992,M,89.8,93,155,160,167.5,167.5,110,115,-120,115,-190,190,-200,190,472.5
10,Paul Marleux,Seniors,Raw,SBD,,1998,M,86,93,135,142.5,-147.5,142.5,85,90,-95,90,215,225,-230,225,457.5
DQ,Mehdi Sekarna,Seniors,Raw,SBD,,1998,M,88.5,93,-190,-200,-205,,130,-137.5,-137.5,130,227.5,242.5,250,250,
1,Grégory Franco,Masters 1,Raw,SBD,,1977,M,88.9,93,185,-192.5,192.5,192.5,107.5,115,-120,115,190,200,-207.5,200,507.5
1,Xavier Nudant,Seniors,Raw,SBD,,1984,M,100,105,232.5,240,-247.5,240,162.5,167.5,-170,167.5,280,295,-307.5,295,702.5
2,Sioban Di Mambro,Seniors,Raw,SBD,,1998,M,100.6,105,205,215,-225,215,127.5,132.5,-137.5,132.5,230,-242.5,-252.5,230,577.5
3,Douhore Azaud,Seniors,Raw,SBD,,1999,M,102,105,170,185,195,195,92.5,100,-105,100,180,-190,-200,180,475
DQ,Dorian Thiery,Seniors,Raw,SBD,,1999,M,103,105,250,260,265,265,155,160,-165,160,-290,-290,,,
1,Adrien Dubreuil,Seniors,Raw,SBD,,1996,M,116.4,120,195,205,215,215,135,142.5,145,145,210,225,240,240,600
