Place,Name,Sex,BirthDate,Age,Country,State,Equipment,Division,BodyweightKg,WeightClassKg,Squat1Kg,Squat2Kg,Squat3Kg,Squat4Kg,Best3SquatKg,Bench1Kg,Bench2Kg,Bench3Kg,Bench4Kg,Best3BenchKg,Deadlift1Kg,Deadlift2Kg,Deadlift3Kg,Deadlift4Kg,Best3DeadliftKg,TotalKg,Event
1,Melissa Judd,F,1978-07-07,44,USA,KY,Raw,M1-T,71.5,75,-60,-60,60,,60,30,32.5,-37.5,,32.5,80,85,92.5,-95,92.5,185,SBD
1,Tiffany Meadows,F,1981-12-15,41,USA,KY,Raw,M1-T,92.6,100,-62.5,62.5,70,,70,25,30,32.5,,32.5,62.5,70,82.5,,82.5,185,SBD
1,Natalie Foster,F,1998-07-05,24,USA,KY,Raw,N-X,73.3,75,72.5,77.5,85,,85,32.5,37.5,40,,40,80,85,95,,95,220,SBD
1,Abrie Meadows,F,2007-10-20,15,USA,KY,Raw,T1-X,108.2,110,122.5,137.5,147.5,,147.5,62.5,67.5,70,,70,110,125,132.5,140,132.5,350,SBD
1,McKenna Wright,F,2004-05-05,19,USA,KY,Raw,T3-X,51,52,-75,-75,75,,75,32.5,35,37.5,,37.5,92.5,102.5,107.5,,107.5,220,SBD
1,Heather Streible,F,1977-05-11,46,USA,KY,Wraps,M2-T,86.6,90,110,-127.5,132.5,,132.5,70,-80,-82.5,,70,132.5,-145,-145,,132.5,335,SBD
1,Heather Streible,F,1977-05-11,46,USA,KY,Wraps,M2-T,86.6,90,110,-127.5,132.5,,132.5,70,-80,-82.5,,70,132.5,-145,-145,,132.5,335,SBD
1,Renee Turner,F,1977-01-26,46,USA,KY,Wraps,M2-T,95.7,100,100,105,112.5,117.5,112.5,65,70,72.5,75,72.5,45,102.5,127.5,130,127.5,312.5,SBD
1,Crystal Prather,F,1987-10-28,35,USA,KY,Wraps,O-T,98.1,100,115,122.5,132.5,137.5,132.5,62.5,67.5,-75,,67.5,140,152.5,165,-175,165,365,SBD
1,Crystal Prather,F,1987-10-28,35,USA,KY,Wraps,S-T,98.1,100,115,122.5,132.5,137.5,132.5,62.5,67.5,-75,,67.5,140,152.5,165,-175,165,365,SBD
1,Beverly Lemay,F,2008-08-05,14,USA,KY,Wraps,T1-X,60.5,67.5,-100,105,112.5,,112.5,40,47.5,-50,,47.5,97.5,105,110,115,110,270,SBD
1,Jason Ferari,M,2002-05-06,21,USA,KY,Raw,J-T,79.8,82.5,137.5,160,175,,175,115,137.5,-145,,137.5,142.5,217.5,227.5,237.5,227.5,540,SBD
1,Andrew Mosby,M,2000-04-12,23,USA,KY,Raw,J-T,88.6,90,227.5,235,242.5,,242.5,152.5,-157.5,-157.5,,152.5,-250,250,277.5,,277.5,672.5,SBD
1,Jordan Springer,M,1998-03-21,25,USA,KY,Raw,N-X,69.6,75,135,145,162.5,,162.5,92.5,102.5,-112.5,,102.5,142.5,182.5,-197.5,,182.5,447.5,SBD
2,Jordan Wright,M,1997-11-26,25,USA,KY,Raw,N-X,71.4,75,110,120,-137.5,,120,67.5,-72.5,-72.5,,67.5,160,170,-182.5,,170,357.5,SBD
1,Jordon York,M,1991-05-31,32,USA,KY,Raw,N-X,89.3,90,-205,205,-220,,205,152.5,155,-160,,155,227.5,242.5,250,,250,610,SBD
1,Jordan Springer,M,1998-03-21,25,USA,KY,Raw,O-T,69.6,75,135,145,162.5,,162.5,92.5,102.5,-112.5,,102.5,142.5,182.5,-197.5,,182.5,447.5,SBD
2,Jordan Wright,M,1997-11-26,25,USA,KY,Raw,O-T,71.4,75,110,120,-137.5,,120,67.5,-72.5,-72.5,,67.5,160,170,-182.5,,170,357.5,SBD
1,Jason Ferari,M,2002-05-06,21,USA,KY,Raw,O-T,79.8,82.5,137.5,160,175,,175,115,137.5,-145,,137.5,142.5,217.5,227.5,237.5,227.5,540,SBD
1,Andrew Mosby,M,2000-04-12,23,USA,KY,Raw,O-T,88.6,90,227.5,235,242.5,,242.5,152.5,-157.5,-157.5,,152.5,-250,250,277.5,,277.5,672.5,SBD
1,Ethan Pierce,M,1998-11-19,24,USA,KY,Raw,O-T,98.1,100,215,-227.5,227.5,,227.5,152.5,-157.5,-157.5,,152.5,227.5,250,260,,260,640,SBD
1,Seth Houchens,M,1996-09-22,26,USA,KY,Raw,O-T,118.8,125,247.5,260,-272.5,,260,187.5,192.5,-202.5,,192.5,-282.5,282.5,,,282.5,735,SBD
1,Dakota Westmoreland,M,1995-01-21,28,USA,KY,Raw,O-T,134.8,140,255,265,272.5,280,272.5,165,-172.5,172.5,,172.5,272.5,282.5,-290,,282.5,727.5,SBD
1,Gabriel Frische,M,1988-03-21,35,USA,KY,Raw,S-T,73.3,75,127.5,135,142.5,,142.5,75,85,92.5,,92.5,165,175,182.5,,182.5,417.5,SBD
1,Spencer Witty,M,1988-04-08,35,USA,KY,Raw,S-T,182.9,140+,260,287.5,292.5,,292.5,177.5,187.5,197.5,,197.5,295,305,-312.5,,305,795,SBD
1,Bryar McCubbins,M,2006-12-27,16,USA,KY,Raw,T2-X,89.3,90,102.5,110,115,,115,-57.5,57.5,-60,,57.5,142.5,150,-155,,150,322.5,SBD
1,Zander Judd,M,2006-10-14,16,USA,KY,Raw,T2-X,98.1,100,115,120,127.5,,127.5,80,-90,-90,,80,170,182.5,-190,,182.5,390,SBD
1,Evan Curry,M,2007-02-05,16,USA,KY,Raw,T2-X,107.1,110,180,192.5,205,,205,135,-137.5,137.5,,137.5,195,205,-217.5,,205,547.5,SBD
2,Riley Robertson,M,2007-06-06,16,USA,KY,Raw,T2-X,102.3,110,190,195,200,,200,112.5,125,-130,,125,207.5,-227.5,,,207.5,532.5,SBD
1,Luke Veach,M,2012-03-27,11,USA,KY,Raw,Y-X,91.9,100,60,67.5,70,-75,70,37.5,-42.5,-42.5,,37.5,85,90,-100,,90,197.5,SBD
1,Ben Bailey,M,2011-06-17,12,USA,KY,Raw,Y-X,49.3,52,65,70,80,,80,30,32.5,-35,,32.5,72.5,90,102.5,-105,102.5,215,SBD
1,Karson Knight,M,2010-11-10,12,USA,KY,Raw,Y-X,114,125,72.5,92.5,-102.5,,92.5,42.5,47.5,-52.5,,47.5,92.5,97.5,115,,115,255,SBD
1,Ronnie Turner,M,1971-05-01,52,USA,KY,Wraps,M3-U,97.3,100,100,110,117.5,,117.5,62.5,72.5,77.5,,77.5,147.5,165,172.5,,172.5,367.5,SBD
1,Tim Bailey #1,M,1957-12-04,65,USA,KY,Wraps,M6-T,59.7,60,70,72.5,77.5,80,77.5,52.5,55,-57.5,,55,115,117.5,122.5,125,122.5,255,SBD
1,Eugene Bazemore,M,1992-09-26,30,USA,GA,Wraps,MPF-U,133.5,140,297.5,320,330,,330,230,-237.5,,,230,320,347.5,352.5,,352.5,912.5,SBD
1,Levi Gillespie,M,2004-10-15,18,USA,KY,Wraps,T3-X,64.2,67.5,112.5,127.5,137.5,140,137.5,60,65,-70,,65,137.5,152.5,160,-162.5,160,362.5,SBD
1,Nathan Crawford,M,1965-09-11,57,USA,KY,Single-ply,M4-T,77.56,82.5,115,135,150,,150,92.5,100,-105,,100,115,137.5,160,170,160,410,SBD
2,David Eden,M,1979-09-12,43,USA,KY,Single-ply,M1-T,79.01,82.5,125,130,140,,140,102.5,107.5,-115,,107.5,145,155,160,,160,407.5,SBD
1,David Eden,M,1979-09-12,43,USA,KY,Single-ply,N-X,79.01,82.5,125,130,140,,140,102.5,107.5,-115,,107.5,145,155,160,,160,407.5,SBD
DQ,Chuck Walton,M,1978-02-18,45,USA,KY,Single-ply,M2-U,89.45,90,247.5,260,275,,275,-177.5,-187.5,-190,,,,,,,,,SB
DQ,Chuck Walton,M,1978-02-18,45,USA,KY,Single-ply,O-U,89.45,90,247.5,260,275,,275,-177.5,-187.5,-190,,,,,,,,,SB
1,Chuck Walton,M,1978-02-18,45,USA,KY,Single-ply,M2-U,89.45,90,247.5,260,275,,275,,,,,,,,,,,275,S
1,Chuck Walton,M,1978-02-18,45,USA,KY,Single-ply,O-U,89.45,90,247.5,260,275,,275,,,,,,,,,,,275,S
