Name,WeightClassKg,Sex,Division,AgeRange,Best3SquatKg,Best3BenchKg,Best3DeadliftKg,TotalKg,Event,Equipment,Place
Tanya Talton,48,F,Women,,92.5,35,117.5,245,SBD,Single-ply,1
M. Simmons,48,F,Women,,85,37.5,115,237.5,SBD,Single-ply,2
J. Guillory,48,F,Women,,82.5,35,92.5,210,SBD,Single-ply,3
Beth Taylor #3,48,F,Women,,,,,,SBD,Single-ply,DQ
R. Williams,52,F,Women,,62.5,47.5,87.5,197.5,SBD,Single-ply,1
Luanne Thornton,56,F,Women,,120,70,135,325,SBD,Single-ply,1
Debbie Leonard,56,F,Women,,117.5,57.5,122.5,297.5,SBD,Single-ply,2
T. Thompson,56,F,Women,,102.5,65,115,282.5,SBD,Single-ply,3
E. Gerkin,56,F,Women,,80,42.5,87.5,210,SBD,Single-ply,4
Debora Avery,56,F,Women,,,,,,SBD,Single-ply,DQ
K. Fontenot,56,F,Women,,77.5,,,,SBD,Single-ply,DQ
Lindy Champion,60,F,Women,,117.5,65,147.5,330,SBD,Single-ply,1
L. Schneider,67.5,F,Women,,90,47.5,140,277.5,SBD,Single-ply,2
Pam Austin,67.5,F,Women,,105,60,117.5,282.5,SBD,Single-ply,1
E. Stringfield,67.5,F,Women,,82.5,42.5,102.5,227.5,SBD,Single-ply,3
S. Schwenke,67.5,F,Women,,70,40,107.5,217.5,SBD,Single-ply,4
E. Boyd,67.5,F,Women,,,,,,SBD,Single-ply,DQ
Henry Pitard,90,M,Masters 40-49,40-49,275,162.5,275,712.5,SBD,Single-ply,1
Floyd Lyon,82.5,M,Masters 40-49,40-49,255,147.5,262.5,665,SBD,Single-ply,1
J. Adams,,M,Masters 40-49,40-49,270,162.5,237.5,670,SBD,Single-ply,1
Jim Haga,110,M,Masters 40-49,40-49,245,205,250,700,SBD,Single-ply,1
R. Roy,110,M,Masters 40-49,40-49,227.5,155,255,637.5,SBD,Single-ply,2
Bob Bates,110,M,Masters 40-49,40-49,192.5,120,210,522.5,SBD,Single-ply,3
B. Sinclair,,M,Masters 40-49,40-49,192.5,120,210,522.5,SBD,Single-ply,2
Don Martin,125+,M,Masters 40-49,40-49,,,,,SBD,Single-ply,DQ
Charles Kuehn,,M,Masters 50-59,50-59,182.5,117.5,200,500,SBD,Single-ply,1
George Stevens,,M,Masters 60+,60-999,45,40,100,185,SBD,Single-ply,1
Kevin Jones #12,52,M,Open,,145,90,135,370,SBD,Single-ply,1
Chris Warnick,56,M,Open,,157.5,102.5,192.5,452.5,SBD,Single-ply,1
Tim Smith #1,56,M,Open,,142.5,95,167.5,405,SBD,Single-ply,2
T. Thompson,56,M,Open,,102.5,65,115,282.5,SBD,Single-ply,3
Mike Duhon,56,M,Open,,,,,,SBD,Single-ply,DQ
B. White,60,M,Open,,145,60,145,350,SBD,Single-ply,1
Dan Rogers,60,M,Open,,105,77.5,142.5,325,SBD,Single-ply,2
John Ronza III,67.5,M,Open,,227.5,165,225,617.5,SBD,Single-ply,1
Glen Venator,67.5,M,Open,,215,140,222.5,577.5,SBD,Single-ply,2
Bill Bell,67.5,M,Open,,200,140,237.5,577.5,SBD,Single-ply,3
Terry Miller,67.5,M,Open,,215,125,220,560,SBD,Single-ply,4
T. McDonald,67.5,M,Open,,182.5,140,192.5,515,SBD,Single-ply,5
Frank Restivo,67.5,M,Open,,175,117.5,205,497.5,SBD,Single-ply,6
J. Reno,67.5,M,Open,,172.5,122.5,182.5,477.5,SBD,Single-ply,7
Gary Graves,67.5,M,Open,,177.5,95,192.5,465,SBD,Single-ply,8
S. Dupuy,67.5,M,Open,,160,100,192.5,452.5,SBD,Single-ply,9
S. Martin,67.5,M,Open,,147.5,105,190,442.5,SBD,Single-ply,10
B. Pipes,67.5,M,Open,,130,102.5,167.5,400,SBD,Single-ply,11
Gaddis Capps,67.5,M,Open,,,,,,SBD,Single-ply,DQ
John Inzer,75,M,Open,,267.5,137.5,305,710,SBD,Single-ply,1
Roger Bell,75,M,Open,,260,167.5,255,682.5,SBD,Single-ply,2
John Valenti,75,M,Open,,255,145,272.5,672.5,SBD,Single-ply,3
Kevin Weir,75,M,Open,,250,147.5,272.5,670,SBD,Single-ply,4
Brian Grim,75,M,Open,,227.5,130,232.5,590,SBD,Single-ply,5
Tim Hill,75,M,Open,,220,130,235,585,SBD,Single-ply,6
D. Baker,75,M,Open,,227.5,117.5,227.5,572.5,SBD,Single-ply,7
A. Kirschner,75,M,Open,,,,,,SBD,Single-ply,DQ
Arthur Mark Fowler Jr,75,M,Open,,,,,,SBD,Single-ply,DQ
Dennis Wright #1,82.5,M,Open,,340,220,287.5,847.5,SBD,Single-ply,1
Steve Baldwin,82.5,M,Open,,285,182.5,272.5,740,SBD,Single-ply,2
Dan Canales,82.5,M,Open,,265,155,272.5,692.5,SBD,Single-ply,3
Rick Farmer,82.5,M,Open,,250,160,272.5,682.5,SBD,Single-ply,4
Floyd Lyon,82.5,M,Open,,255,147.5,262.5,665,SBD,Single-ply,5
Richard Watson,82.5,M,Open,,242.5,157.5,260,660,SBD,Single-ply,6
J. Anderson,82.5,M,Open,,242.5,145,272.5,660,SBD,Single-ply,7
Mike Sharpe,82.5,M,Open,,260,150,242.5,652.5,SBD,Single-ply,8
Bill Reilly,82.5,M,Open,,242.5,150,250,642.5,SBD,Single-ply,9
Tom Fields,82.5,M,Open,,227.5,162.5,245,635,SBD,Single-ply,10
J. Jones,82.5,M,Open,,207.5,122.5,227.5,557.5,SBD,Single-ply,11
B. Bush,82.5,M,Open,,210,120,227.5,557.5,SBD,Single-ply,12
H. Lincoln,82.5,M,Open,,180,140,232.5,552.5,SBD,Single-ply,13
J. Law,82.5,M,Open,,192.5,112.5,227.5,532.5,SBD,Single-ply,14
Wallace Johnson,82.5,M,Open,,195,120,205,520,SBD,Single-ply,15
B. Newby,82.5,M,Open,,,,,,SBD,Single-ply,DQ
Ken O'Brien,82.5,M,Open,,,,,,SBD,Single-ply,DQ
S. Kmiecik,82.5,M,Open,,,,,,SBD,Single-ply,DQ
Larry Mistric,90,M,Open,,312.5,192.5,317.5,822.5,SBD,Single-ply,1
Joe Joyner,90,M,Open,,300,177.5,297.5,775,SBD,Single-ply,3
Duane Burrell,90,M,Open,,285,177.5,297.5,760,SBD,Single-ply,4
Chris Garcia #3,90,M,Open,,300,210,272.5,782.5,SBD,Single-ply,2
P. Beckham,90,M,Open,,300,137.5,287.5,725,SBD,Single-ply,5
Mike Reed,90,M,Open,,260,160,295,715,SBD,Single-ply,6
Henry Pitard,90,M,Open,,275,162.5,275,712.5,SBD,Single-ply,7
Clarence Guiton,90,M,Open,,257.5,162.5,287.5,707.5,SBD,Single-ply,8
John McDowell #1,90,M,Open,,262.5,155,287.5,705,SBD,Single-ply,9
K. Black,90,M,Open,,275,177.5,250,702.5,SBD,Single-ply,10
S. McGough,90,M,Open,,260,182.5,255,697.5,SBD,Single-ply,11
Pat Talley,90,M,Open,,255,140,285,680,SBD,Single-ply,12
Mark Corder,90,M,Open,,262.5,142.5,262.5,667.5,SBD,Single-ply,13
W. Thaxton,90,M,Open,,200,140,262.5,602.5,SBD,Single-ply,14
J. Mason,90,M,Open,,230,112.5,247.5,590,SBD,Single-ply,15
L. Ingerson,90,M,Open,,197.5,135,242.5,575,SBD,Single-ply,17
D. Cummings,90,M,Open,,200,140,230,570,SBD,Single-ply,18
Greg Evans #2,90,M,Open,,200,152.5,217.5,570,SBD,Single-ply,19
Clay Sturgis,90,M,Open,,215,110,230,555,SBD,Single-ply,20
S. Robinson,90,M,Open,,165,140,285,590,SBD,Single-ply,16
Robert Keller #1,90,M,Open,,182.5,,,,SBD,Single-ply,DQ
Gil Thompson,100,M,Open,,332.5,237.5,307.5,877.5,SBD,Single-ply,1
Wayne Smith,100,M,Open,,310,192.5,320,822.5,SBD,Single-ply,2
Charlie Perkins,100,M,Open,,300,187.5,320,807.5,SBD,Single-ply,3
Phil Elmore,100,M,Open,,290,197.5,310,797.5,SBD,Single-ply,4
J. Schmidt,100,M,Open,,250,182.5,260,692.5,SBD,Single-ply,5
Gary Edwards,100,M,Open,,242.5,147.5,242.5,632.5,SBD,Single-ply,6
Marty Echols,100,M,Open,,230,160,212.5,602.5,SBD,Single-ply,7
K. Walker,100,M,Open,,232.5,155,215,602.5,SBD,Single-ply,8
Casey Sanders,110,M,Open,,315,227.5,305,847.5,SBD,Single-ply,1
Mike Bandera,110,M,Open,,322.5,190,322.5,835,SBD,Single-ply,2
Frank Christman,110,M,Open,,325,187.5,295,807.5,SBD,Single-ply,3
Ricky Osborn,110,M,Open,,282.5,182.5,275,740,SBD,Single-ply,4
Paul Holmes,110,M,Open,,280,152.5,305,737.5,SBD,Single-ply,5
Jim Haga,110,M,Open,,245,205,250,700,SBD,Single-ply,6
Ralph Jones,110,M,Open,,257.5,182.5,257.5,697.5,SBD,Single-ply,7
R. Roy,110,M,Open,,227.5,155,255,637.5,SBD,Single-ply,8
Bob Frost,110,M,Open,,200,145,230,575,SBD,Single-ply,9
B. D'Angelo,110,M,Open,,192.5,110,227.5,530,SBD,Single-ply,10
Bob Bates,110,M,Open,,192.5,120,210,522.5,SBD,Single-ply,11
Eddie Polk,110,M,Open,,242.5,172.5,,,SBD,Single-ply,DQ
Chris Maley,110,M,Open,,,,,,SBD,Single-ply,DQ
Doug Matthews,110,M,Open,,,,,,SBD,Single-ply,DQ
Clay Patterson #1,125,M,Open,,350,165,330,845,SBD,Single-ply,1
J. Alexander,125,M,Open,,192.5,155,227.5,575,SBD,Single-ply,2
M. Hood,125,M,Open,,,,,,SBD,Single-ply,DQ
Bill Lobins,125,M,Open,,,,,,SBD,Single-ply,DQ
S. Bryan,125,M,Open,,,,,,SBD,Single-ply,DQ
W. Miller,125,M,Open,,,,,,SBD,Single-ply,DQ
D. Patterson,125,M,Open,,,,,,SBD,Single-ply,DQ
Oscar Guiton,125+,M,Open,,295,205,262.5,762.5,SBD,Single-ply,1
Ernie Lane,125+,M,Open,,,,,,SBD,Single-ply,DQ
Don Martin,125+,M,Open,,,,,,SBD,Single-ply,DQ
B. Young,125+,M,Open,,,,,,SBD,Single-ply,DQ
Todd Daley,,M,Teen 14-15,14-15,182.5,90,187.5,460,SBD,Single-ply,1
Greg Herbert,,M,Teen 14-15,14-15,120,75,145,340,SBD,Single-ply,2
D. Pratt,,M,Teen 14-15,14-15,87.5,97.5,137.5,322.5,SBD,Single-ply,3
P. McCarty,,M,Teen 14-15,14-15,,,,,SBD,Single-ply,DQ
Tony Springer,,M,Teen 16-17,16-17,182.5,125,192.5,500,SBD,Single-ply,1
C. Cunningham,,M,Teen 16-17,16-17,147.5,95,200,442.5,SBD,Single-ply,3
M. Snowden,,M,Teen 16-17,16-17,130,105,170,405,SBD,Single-ply,5
B. McGee,,M,Teen 16-17,16-17,150,107.5,170,427.5,SBD,Single-ply,4
B. White,60,M,Teen 16-17,16-17,145,60,145,350,SBD,Single-ply,7
R. Sims,,M,Teen 16-17,16-17,140,125,190,455,SBD,Single-ply,2
Bill Hadley,,M,Teen 16-17,16-17,122.5,92.5,157.5,372.5,SBD,Single-ply,6
G. Cunningham,,M,Teen 16-17,16-17,145,,,,SBD,Single-ply,DQ
D. Jones,,M,Teen 16-17,16-17,,,,,SBD,Single-ply,DQ
W. Short,,M,Teen 16-17,16-17,,,,,SBD,Single-ply,DQ
S. McGough,90,M,Teen 18-19,18-19,260,182.5,255,697.5,SBD,Single-ply,1
Tom Fields,82.5,M,Teen 18-19,18-19,227.5,162.5,245,635,SBD,Single-ply,2
D. Kern,,M,Teen 18-19,18-19,165,105,182.5,452.5,SBD,Single-ply,5
David Silmon,,M,Teen 18-19,18-19,160,107.5,182.5,450,SBD,Single-ply,6
H. Morphis,,M,Teen 18-19,18-19,205,160,215,580,SBD,Single-ply,3
H. Willard,,M,Teen 18-19,18-19,182.5,110,222.5,515,SBD,Single-ply,4
John Russell,,M,Teen 18-19,18-19,142.5,107.5,167.5,417.5,SBD,Single-ply,7
L. Hargrove,,M,Teen 18-19,18-19,137.5,100,162.5,400,SBD,Single-ply,8
T. Allen,,M,Teen 18-19,18-19,,,,,SBD,Single-ply,DQ
J. Canerday,,M,Teen 18-19,18-19,,,,,SBD,Single-ply,DQ
Jody Elmore,,M,Teen 18-19,18-19,,,,,SBD,Single-ply,DQ
