Place,WeightClassKg,Name,BirthDate,Equipment,Team,BodyweightKg,Squat1Kg,Squat2Kg,Squat3Kg,Best3SquatKg,Bench1Kg,Bench2Kg,Bench3Kg,Best3BenchKg,Deadlift1Kg,Deadlift2Kg,Deadlift3Kg,Best3DeadliftKg,TotalKg,Division,Sex,Event
1,57,Wenying Jacobsen,,Raw,Kristiansand AK,53.20,87.5,95,100,100.0,57.5,62.5,-67.5,62.5,107.5,120,-130,120.0,282.5,Juniors 19-23,F,SBD
2,57,Michelle Castillo,,Raw,Kristiansand AK,54.50,90,97.5,105,105.0,40,-47.4,47.5,47.5,70,,,70.0,222.5,Juniors 19-23,F,SBD
1,69,June Tønnesland Morland,,Raw,Kristiansand AK,69.00,102.5,112.5,115,115.0,47.5,50,-55,50.0,105,115,120,120.0,285,Juniors 19-23,F,SBD
1,63,Marianne Hatlem,,Raw,Kristiansand AK,62.80,120,125,130,130.0,92.5,97.5,-100,97.5,165,-175,-175,165.0,392.5,Open,F,SBD
1,83,Daniel Nilsen Helle,,Raw,Kristiansand AK,76.70,165,172.5,-185,172.5,117.5,122.5,130,130.0,205,215,-230,215.0,517.5,Teen 14-18,M,SBD
1,59,Daniel Nguyen,,Raw,Kristiansand AK,58.60,,,,,-105,-105,105,105.0,,,,,105,Juniors 19-23,M,B
1,83,Yassin Skoglund Taki,,Raw,Kristiansand AK,83.00,160,170,177.5,177.5,90,97.5,-102.5,97.5,180,190,200,200.0,475,Open,M,SBD
1,93,Kent Roger Samuelsen,,Raw,Kristiansand AK,92.10,185,200,210,210.0,117.5,130,140,140.0,225,240,250,250.0,600,Open,M,SBD
2,93,Patrick Meyer Pedersen,,Raw,Kristiansand AK,91.60,160,170,180,180.0,130,135,-140,135.0,180,190,-195,190.0,505,Open,M,SBD
